AB112233;Jerry;Toes;1234 Some St;Montreal;175.5;89.1;1972
BC445566;Ted;Hands;5678 Any St;Toronto;180.0;56.2;1990
BC567890;Ned;Hands;5678 Any St;Toronto;180.0;56.2;1990
DE123456;TYPE;LASDF;243 ASFASF;AFASDF;1.7;56.0;1968
